<?xml version="1.0" encoding="utf-8"?>
<!-- Generator: Adobe Illustrator 16.0.0, SVG Export Plug-In . SVG Version: 6.00 Build 0)  -->
<!DOCTYPE svg PUBLIC "-//W3C//DTD SVG 1.1//EN" "http://www.w3.org/Graphics/SVG/1.1/DTD/svg11.dtd">
<svg version="1.1" id="Layer_1" xmlns="http://www.w3.org/2000/svg" xmlns:xlink="http://www.w3.org/1999/xlink" x="0px" y="0px"
	 width="200px" height="25px" viewBox="0 0 200 25" enable-background="new 0 0 200 25" xml:space="preserve">
<path fill="#FFFFFF" d="M197.73,23.397h-7.324v-1.979c0-1.428,1.086-2.065,2.312-2.065c1.235,0,2.323,0.638,2.323,2.065v0.591h2.689
	V23.397z M192.718,20.757c-0.664,0-1.1,0.287-1.1,0.799v0.453h2.204v-0.453C193.822,21.044,193.377,20.757,192.718,20.757"/>
<path fill="#FFFFFF" d="M197.73,13.281l-2.689,0.788v0.452h2.689v1.391h-7.324v-2.045c0-1.167,0.924-1.998,2.276-1.998
	c1.231,0,1.798,0.522,2.018,0.94l3.03-1.015V13.281z M192.718,13.273c-0.664,0-1.1,0.283-1.1,0.796v0.452h2.204v-0.452
	C193.822,13.557,193.377,13.273,192.718,13.273"/>
<path fill="#FFFFFF" d="M194.068,8.442c-2.148,0-3.787-0.665-3.787-2.284c0-1.606,1.639-2.285,3.787-2.285
	c2.157,0,3.795,0.679,3.795,2.285C197.863,7.777,196.226,8.442,194.068,8.442 M194.068,5.289c-1.466,0-2.56,0.223-2.56,0.869
	c0,0.649,1.094,0.87,2.56,0.87c1.441,0,2.56-0.221,2.56-0.87C196.628,5.511,195.51,5.289,194.068,5.289"/>
<path fill="#FFFFFF" d="M1.749,21.534l1.723-3.105C4.318,19.529,5.664,20.1,6.886,20.1c1.256,0,2.099-0.946,2.099-2.295
	c0-3.699-6.641-3.699-6.641-9.998c0-3.135,2.127-5.826,5.829-5.826c1.753,0,3.384,0.593,4.544,1.691l-1.536,3.037
	c-0.814-0.84-1.79-1.221-2.883-1.221c-1.13,0-1.943,0.846-1.943,2.103c0,3.258,6.646,3.693,6.646,9.965
	c0,3.504-2.29,6.044-5.863,6.044C4.85,23.6,3.097,22.886,1.749,21.534"/>
<path fill="#FFFFFF" d="M22.932,17.174V2.326h3.951v15.042c0,2.031,0.779,2.751,2,2.751c1.194,0,2.009-0.72,2.009-2.751V2.326h3.947
	v14.848c0,4.483-2.852,6.426-5.956,6.426C25.784,23.6,22.932,21.657,22.932,17.174"/>
<path fill="#FFFFFF" d="M44.96,12.788c0-6.424,2.037-10.808,6.549-10.808c2.919,0,4.548,2.223,5.238,4.919l-3.134,1.16
	c-0.346-1.443-0.881-2.572-2.104-2.572c-1.566,0-2.505,2.292-2.505,7.301c0,4.982,0.939,7.312,2.505,7.312
	c0.876,0,1.474-0.352,1.882-0.946v-3.794h-2.35v-3.478h5.833v8.959c-1.384,1.765-3.012,2.759-5.364,2.759
	C46.997,23.6,44.96,19.182,44.96,12.788"/>
<path fill="#FFFFFF" d="M74.92,23.228l-0.628-3.859h-3.884l-0.628,3.859h-4.076l4.357-20.906h4.545l4.382,20.906H74.92z
	 M72.352,6.74l-1.505,9.153h3.007L72.352,6.74z"/>
<path fill="#FFFFFF" d="M95.634,23.228l-2.253-7.684h-1.287v7.684h-3.953V2.326h5.833c3.32,0,5.706,2.661,5.706,6.485
	c0,3.543-1.504,5.14-2.699,5.759l2.887,8.657H95.634z M95.661,8.939c0-1.916-0.816-3.138-2.28-3.138h-1.287v6.27h1.287
	C94.845,12.071,95.661,10.815,95.661,8.939"/>
<polygon fill="#FFFFFF" points="110.082,23.228 110.082,2.326 114.022,2.326 114.022,19.748 119.229,19.748 119.229,23.228 "/>
<path fill="#FFFFFF" d="M136.618,23.228l-0.626-3.859h-3.883l-0.626,3.859h-4.075l4.353-20.906h4.546l4.393,20.906H136.618z
	 M134.06,6.74l-1.517,9.153h3.022L134.06,6.74z"/>
<path fill="#FFFFFF" d="M148.591,21.534l1.729-3.105c0.838,1.101,2.191,1.671,3.414,1.671c1.253,0,2.096-0.946,2.096-2.295
	c0-3.699-6.642-3.699-6.642-9.998c0-3.135,2.138-5.826,5.828-5.826c1.752,0,3.38,0.593,4.545,1.691l-1.535,3.037
	c-0.813-0.84-1.785-1.221-2.885-1.221c-1.128,0-1.941,0.846-1.941,2.103c0,3.258,6.642,3.693,6.642,9.965
	c0,3.504-2.288,6.044-5.858,6.044C151.698,23.6,149.942,22.886,148.591,21.534"/>
<polygon fill="#FFFFFF" points="177.736,23.228 177.736,14.206 173.724,14.206 173.724,23.228 169.774,23.228 169.774,2.326 
	173.724,2.326 173.724,10.752 177.736,10.752 177.736,2.326 181.685,2.326 181.685,23.228 "/>
</svg>
