<svg xmlns="http://www.w3.org/2000/svg" width="100" height="35" viewBox="0 0 100 35">
    <path fill="#EE5253" fill-rule="evenodd" d="M63.13 23.483a5.739 5.739 0 0 1-2.826 1.22c-.333.901-.876 1.583-1.63 2.044-.754.462-1.63.693-2.627.693-1.441 0-2.494-.43-3.16-1.286-.587-.758-.915-1.636-.984-2.634a11.292 11.292 0 0 1-1.975 1.908c-1.574 1.187-3.193 1.78-4.855 1.78-1.308 0-2.312-.356-3.01-1.07-.658-.674-1.006-1.527-1.044-2.56-1.45 2.113-2.991 3.17-4.626 3.17-.91 0-1.58-.309-2.012-.924-.432-.615-.649-1.44-.649-2.473 0-.269.013-.55.039-.846-.284.48-.596.932-.937 1.357-.731.912-1.518 1.621-2.36 2.127-.843.505-1.652.758-2.428.758s-1.37-.225-1.78-.676c-.41-.45-.615-.994-.615-1.632 0-.285.034-.604.1-.956-.998 1.319-1.89 2.286-2.677 2.901-.787.616-1.569.924-2.345.924-.731 0-1.324-.237-1.779-.71-.454-.472-.682-1.148-.682-2.027 0-1.297.472-2.747 1.414-4.352a14.3 14.3 0 0 1 3.575-4.088c1.44-1.121 2.849-1.681 4.223-1.681.865 0 1.585.23 2.162.692.576.461.865 1.055.865 1.78 0 .506-.145.868-.433 1.088-.288.22-.687.33-1.197.33.11-.396.166-.78.166-1.154 0-.55-.133-.995-.399-1.335-.266-.34-.676-.511-1.23-.511-.976 0-2.001.538-3.076 1.615-1.076 1.077-1.974 2.363-2.694 3.858-.72 1.494-1.08 2.78-1.08 3.857 0 .857.298 1.286.897 1.286.887 0 1.929-.698 3.126-2.094 1.197-1.395 2.483-3.093 3.858-5.093.288.044.582.137.881.28.3.143.449.324.449.544 0 .176-.105.456-.316.84-.21.385-.338.61-.382.676a17.375 17.375 0 0 0-.898 1.698c-.222.495-.333.95-.333 1.369 0 .373.094.708.283 1.005.188.297.47.445.848.445.643 0 1.452-.456 2.427-1.368.876-.82 1.743-1.935 2.601-3.348.319-1.586.915-3.46 1.79-5.62 1.374-3.396 2.91-6.456 4.605-9.182 1.696-2.725 2.921-4.088 3.675-4.088.31 0 .57.27.781.808.211.538.316 1.082.316 1.632 0 1.01-.415 2.5-1.247 4.467-.831 1.967-1.923 3.962-3.275 5.984-1.353 2.022-2.794 3.66-4.324 4.913-.288 1.274-.432 2.384-.432 3.33 0 1.692.488 2.538 1.463 2.538.82 0 1.657-.516 2.511-1.55.433-.523.841-1.1 1.226-1.732.16-1.015.566-2.086 1.218-3.213a12.873 12.873 0 0 1 3.276-3.775c1.32-1.022 2.61-1.533 3.874-1.533 1.375 0 2.062.67 2.062 2.011 0 1.077-.41 2.083-1.23 3.017-.82.934-1.874 1.698-3.16 2.291-1.285.594-2.571.956-3.857 1.088-.089.374-.133.77-.133 1.187 0 .791.2 1.45.598 1.978.4.528 1.076.792 2.029.792 1.352 0 2.716-.56 4.09-1.682a12.834 12.834 0 0 0 2.065-2.125c.063-.53.206-.927.43-1.188.31-.363.648-.621 1.014-.775.366-.154.582-.264.648-.33 1.42-1.538 2.517-3.132 3.293-4.78v-.396c0-.747.127-1.308.382-1.681.255-.374.56-.56.915-.56.177 0 .31.038.399.115a.393.393 0 0 1 .133.313c0 .088-.033.269-.1.544-.067.274-.1.577-.1.906 0 .44.061.907.183 1.402.122.494.316 1.137.582 1.928.31.945.549 1.77.715 2.473.166.703.25 1.418.25 2.143 0 .572-.067 1.11-.2 1.616.798-.132 1.54-.49 2.228-1.072.619-.524 1.21-1.293 1.775-2.307l.045-.128a304.609 304.609 0 0 1 3.298-8.915c1.15-2.983 2.22-5.549 3.207-7.698-2.038.042-3.592.098-4.66.167-1.181.075-2.474.233-3.878.472a.442.442 0 0 1-.517-.47c.106-1.233.994-2.107 2.568-2.607C66.006 1.15 68 .92 70.524.92c1.813 0 3.968.133 6.472.399.727.087 1.465.164 2.214.23.741.064 1.416.096 2.023.096.41 0 .6.504.292.77a5.992 5.992 0 0 1-2.62 1.335c-.945.217-2.064.324-3.365.324l-2.056-.029c-1.771 4.427-3.469 9.56-5.093 15.399l-.299 1.088c-.508 1.84-.861 3.212-1.058 4.115-.193.882-.29 1.746-.29 2.594 0 .31.01.534.03.663a.44.44 0 0 1-.44.502c-1.062 0-1.85-.237-2.346-.743-.487-.496-.724-1.183-.724-2.038 0-.614.11-1.317.331-2.111.058-.209.123-.43.195-.665a5.202 5.202 0 0 1-.66.633zM7.238 28.626c-1.293 0-2.494-.228-3.602-.686-1.108-.458-1.991-1.15-2.65-2.077C.33 24.936 0 23.809 0 22.48c0-1.625.45-2.798 1.35-3.519a4.796 4.796 0 0 1 3.083-1.081 7.044 7.044 0 0 0-1.42 2.197 6.38 6.38 0 0 0-.485 2.403c0 1.373.456 2.518 1.368 3.433.912.916 2.222 1.373 3.93 1.373a8.33 8.33 0 0 0 3.1-.583c.98-.39 1.783-.961 2.406-1.717.624-.755.935-1.659.935-2.712 0-.915-.23-1.722-.692-2.42a6.727 6.727 0 0 0-1.732-1.785c-.692-.493-1.616-1.082-2.77-1.769-1.178-.686-2.118-1.287-2.822-1.802a7.27 7.27 0 0 1-1.784-1.871c-.485-.732-.727-1.58-.727-2.54 0-1.328.416-2.707 1.247-4.137.83-1.43 2.002-2.627 3.515-3.588 1.512-.961 3.214-1.442 5.107-1.442 1.27 0 2.194.309 2.77.927.578.618.866 1.453.866 2.506 0 1.145-.277 2.426-.83 3.845-.555 1.42-1.167 2.655-1.836 3.708-.762-.16-1.143-.652-1.143-1.476 0-.435.087-.927.26-1.476.173-.55.421-1.236.744-2.06.347-.893.606-1.62.78-2.18.173-.561.26-1.059.26-1.494 0-.48-.145-.847-.434-1.098-.288-.252-.79-.378-1.506-.378-1.362 0-2.626.418-3.792 1.253a9.739 9.739 0 0 0-2.787 3.038c-.693 1.19-1.04 2.278-1.04 3.262 0 .732.203 1.385.607 1.957.404.572.906 1.07 1.506 1.493.6.424 1.42.921 2.459 1.494 1.246.71 2.25 1.344 3.012 1.905a7.745 7.745 0 0 1 1.957 2.129c.543.858.814 1.87.814 3.038 0 1.51-.445 2.815-1.333 3.914-.89 1.098-2.026 1.94-3.411 2.523a10.955 10.955 0 0 1-4.294.875zm29.388-9.923c1.219-1.21 2.41-2.731 3.575-4.567 1.164-1.835 2.111-3.593 2.843-5.275.732-1.681 1.097-2.896 1.097-3.643 0-.352-.077-.527-.232-.527-.31 0-.948.752-1.913 2.258-.964 1.506-1.956 3.346-2.976 5.522s-1.818 4.253-2.394 6.232zm6.817 2.967c.931-.33 1.907-.791 2.927-1.385a10.72 10.72 0 0 0 2.61-2.093c.72-.803 1.08-1.643 1.08-2.523 0-.263-.049-.456-.149-.577-.1-.12-.282-.18-.548-.18-.688 0-1.436.34-2.245 1.021-.81.682-1.552 1.55-2.228 2.605-.677 1.055-1.159 2.099-1.447 3.132zm14.932 2.473c.089-.572.133-1.088.133-1.55 0-.66-.056-1.319-.166-1.978a27.31 27.31 0 0 0-.5-2.275c-.199-.88-.32-1.45-.365-1.714-1.13 1.846-2.206 3.274-3.226 4.286.355.769.893 1.45 1.613 2.044.72.593 1.558.989 2.51 1.187zm-2.262 2.143c1.02 0 1.719-.539 2.096-1.616a6.28 6.28 0 0 1-2.428-1.038c-.732-.517-1.286-1.083-1.663-1.698-.488.022-.731.406-.731 1.154 0 .835.249 1.577.748 2.225.499.648 1.158.973 1.978.973zM88.54 13.548c.031-.312.11-.547.277-.712.184-.182.444-.244.796-.244.65 0 1.17.193 1.529.592.339.379.51.84.51 1.364 0 .405-.132 1.24-.326 2.287.396-.52.86-1.117 1.32-1.563 1.065-1.033 2.255-1.56 3.552-1.56 1.1 0 2.023.398 2.74 1.184.71.778 1.062 1.79 1.062 3.015 0 1.24-.363 2.545-1.081 3.912a9.732 9.732 0 0 1-2.976 3.417c-1.284.922-2.7 1.386-4.235 1.386-.598 0-1.104-.067-1.52-.204-.533-.176-.852-.416-.852-.83 0-.378.264-.518.634-.567.187-.025.4-.037.64-.037 1.06 0 2.07-.333 3.038-1.008a8.01 8.01 0 0 0 2.397-2.627c.606-1.057.907-2.104.907-3.145 0-.666-.139-1.19-.407-1.584-.237-.349-.569-.516-1.046-.516-.6 0-1.233.254-1.903.78a9.69 9.69 0 0 0-1.908 2.018c-.57.8-1.004 1.548-1.277 2.171-.822 3.48-1.617 6.505-2.385 9.075-.795 2.664-1.371 4.132-1.824 4.554a.992.992 0 0 1-.713.294c-.316 0-.598-.15-.832-.414a3.23 3.23 0 0 1-.462-.686c-.196-.388-.252-.554-.162-.716a76.585 76.585 0 0 1 1.137-3.514 72.86 72.86 0 0 0 1.223-3.834c.146-.511.295-1.104.448-1.779-.68.786-1.409 1.412-2.186 1.879-.908.545-1.795.822-2.657.822-.895 0-1.608-.272-2.109-.821a2.733 2.733 0 0 1-.704-1.522c-.677.804-1.305 1.432-1.885 1.886-.86.673-1.735 1.017-2.619 1.017-.85 0-1.559-.283-2.1-.845-.54-.562-.804-1.346-.804-2.331 0-1.383.495-2.906 1.474-4.573a14.74 14.74 0 0 1 3.684-4.213c1.514-1.178 3.015-1.775 4.497-1.775.962 0 1.782.262 2.44.79.68.545 1.03 1.263 1.03 2.122 0 .631-.196 1.124-.605 1.437-.21.159-.455.271-.736.34.383.208.61.51.61.894 0 .27-.127.605-.37 1.05-.22.402-.348.628-.39.689-.369.624-.66 1.175-.875 1.654-.198.441-.295.838-.295 1.19 0 .292.072.545.215.77.106.167.245.24.473.24.502 0 1.223-.406 2.123-1.248.85-.794 1.697-1.888 2.541-3.28.312-1.827.628-4.057.947-6.68zm-6.138 4.015c.1-.358.15-.703.15-1.036 0-.458-.105-.808-.306-1.067-.176-.224-.455-.34-.88-.34-.84 0-1.762.484-2.761 1.485-1.04 1.041-1.91 2.287-2.61 3.738-.693 1.44-1.037 2.665-1.037 3.668 0 .641.143.846.455.846.724 0 1.667-.632 2.788-1.939 1.186-1.383 2.463-3.068 3.83-5.056a.444.444 0 0 1 .354-.192.44.44 0 0 1 .017-.107z"/>
</svg>
